{
  "formatVersion": 1,
  "database": {
    "version": 29,
    "identityHash": "ca9f02e86d54baa797b13193ab1ec331",
    "entities": [
      {
        "tableName": "Trip",
        "createSql": "CREATE TABLE IF NOT EXISTS `${TABLE_NAME}` (`name` TEXT, `distance` REAL, `duration` REAL, `averageSpeed` REAL, `timestamp` INTEGER NOT NULL, `inProgress` INTEGER NOT NULL, `bikeId` INTEGER NOT NULL, `id` INTEGER PRIMARY KEY AUTOINCREMENT, `notes` TEXT, `userWheelCircumference` REAL, `autoWheelCircumference` REAL, `userSex` INTEGER, `userWeight` REAL, `userHeight` REAL, `userAge` REAL, `userVo2max` REAL, `userRestingHeartRate` INTEGER, `userMaxHeartRate` INTEGER, `stravaSyncStatus` TEXT NOT NULL, FOREIGN KEY(`bikeId`) REFERENCES `Bike`(`id`) ON UPDATE NO ACTION ON DELETE SET DEFAULT )",
        "fields": [
          {
            "fieldPath": "name",
            "columnName": "name",
            "affinity": "TEXT",
            "notNull": false
          },
          {
            "fieldPath": "distance",
            "columnName": "distance",
            "affinity": "REAL",
            "notNull": false
          },
          {
            "fieldPath": "duration",
            "columnName": "duration",
            "affinity": "REAL",
            "notNull": false
          },
          {
            "fieldPath": "averageSpeed",
            "columnName": "averageSpeed",
            "affinity": "REAL",
            "notNull": false
          },
          {
            "fieldPath": "timestamp",
            "columnName": "timestamp",
            "affinity": "INTEGER",
            "notNull": true
          },
          {
            "fieldPath": "inProgress",
            "columnName": "inProgress",
            "affinity": "INTEGER",
            "notNull": true
          },
          {
            "fieldPath": "bikeId",
            "columnName": "bikeId",
            "affinity": "INTEGER",
            "notNull": true
          },
          {
            "fieldPath": "id",
            "columnName": "id",
            "affinity": "INTEGER",
            "notNull": false
          },
          {
            "fieldPath": "notes",
            "columnName": "notes",
            "affinity": "TEXT",
            "notNull": false
          },
          {
            "fieldPath": "userWheelCircumference",
            "columnName": "userWheelCircumference",
            "affinity": "REAL",
            "notNull": false
          },
          {
            "fieldPath": "autoWheelCircumference",
            "columnName": "autoWheelCircumference",
            "affinity": "REAL",
            "notNull": false
          },
          {
            "fieldPath": "userSex",
            "columnName": "userSex",
            "affinity": "INTEGER",
            "notNull": false
          },
          {
            "fieldPath": "userWeight",
            "columnName": "userWeight",
            "affinity": "REAL",
            "notNull": false
          },
          {
            "fieldPath": "userHeight",
            "columnName": "userHeight",
            "affinity": "REAL",
            "notNull": false
          },
          {
            "fieldPath": "userAge",
            "columnName": "userAge",
            "affinity": "REAL",
            "notNull": false
          },
          {
            "fieldPath": "userVo2max",
            "columnName": "userVo2max",
            "affinity": "REAL",
            "notNull": false
          },
          {
            "fieldPath": "userRestingHeartRate",
            "columnName": "userRestingHeartRate",
            "affinity": "INTEGER",
            "notNull": false
          },
          {
            "fieldPath": "userMaxHeartRate",
            "columnName": "userMaxHeartRate",
            "affinity": "INTEGER",
            "notNull": false
          },
          {
            "fieldPath": "stravaSyncStatus",
            "columnName": "stravaSyncStatus",
            "affinity": "TEXT",
            "notNull": true
          }
        ],
        "primaryKey": {
          "autoGenerate": true,
          "columnNames": [
            "id"
          ]
        },
        "indices": [
          {
            "name": "index_Trip_bikeId",
            "unique": false,
            "columnNames": [
              "bikeId"
            ],
            "orders": [],
            "createSql": "CREATE INDEX IF NOT EXISTS `index_Trip_bikeId` ON `${TABLE_NAME}` (`bikeId`)"
          }
        ],
        "foreignKeys": [
          {
            "table": "Bike",
            "onDelete": "SET DEFAULT",
            "onUpdate": "NO ACTION",
            "columns": [
              "bikeId"
            ],
            "referencedColumns": [
              "id"
            ]
          }
        ]
      },
      {
        "tableName": "Measurements",
        "createSql": "CREATE TABLE IF NOT EXISTS `${TABLE_NAME}` (`tripId` INTEGER NOT NULL, `accuracy` REAL NOT NULL, `altitude` REAL NOT NULL, `bearing` REAL NOT NULL, `elapsedRealtimeNanos` INTEGER NOT NULL, `latitude` REAL NOT NULL, `longitude` REAL NOT NULL, `speed` REAL NOT NULL, `time` INTEGER NOT NULL, `bearingAccuracyDegrees` REAL NOT NULL, `elapsedRealtimeUncertaintyNanos` REAL NOT NULL, `speedAccuracyMetersPerSecond` REAL NOT NULL, `verticalAccuracyMeters` REAL NOT NULL, `id` INTEGER PRIMARY KEY AUTOINCREMENT, FOREIGN KEY(`tripId`) REFERENCES `Trip`(`id`) ON UPDATE NO ACTION ON DELETE CASCADE )",
        "fields": [
          {
            "fieldPath": "tripId",
            "columnName": "tripId",
            "affinity": "INTEGER",
            "notNull": true
          },
          {
            "fieldPath": "accuracy",
            "columnName": "accuracy",
            "affinity": "REAL",
            "notNull": true
          },
          {
            "fieldPath": "altitude",
            "columnName": "altitude",
            "affinity": "REAL",
            "notNull": true
          },
          {
            "fieldPath": "bearing",
            "columnName": "bearing",
            "affinity": "REAL",
            "notNull": true
          },
          {
            "fieldPath": "elapsedRealtimeNanos",
            "columnName": "elapsedRealtimeNanos",
            "affinity": "INTEGER",
            "notNull": true
          },
          {
            "fieldPath": "latitude",
            "columnName": "latitude",
            "affinity": "REAL",
            "notNull": true
          },
          {
            "fieldPath": "longitude",
            "columnName": "longitude",
            "affinity": "REAL",
            "notNull": true
          },
          {
            "fieldPath": "speed",
            "columnName": "speed",
            "affinity": "REAL",
            "notNull": true
          },
          {
            "fieldPath": "time",
            "columnName": "time",
            "affinity": "INTEGER",
            "notNull": true
          },
          {
            "fieldPath": "bearingAccuracyDegrees",
            "columnName": "bearingAccuracyDegrees",
            "affinity": "REAL",
            "notNull": true
          },
          {
            "fieldPath": "elapsedRealtimeUncertaintyNanos",
            "columnName": "elapsedRealtimeUncertaintyNanos",
            "affinity": "REAL",
            "notNull": true
          },
          {
            "fieldPath": "speedAccuracyMetersPerSecond",
            "columnName": "speedAccuracyMetersPerSecond",
            "affinity": "REAL",
            "notNull": true
          },
          {
            "fieldPath": "verticalAccuracyMeters",
            "columnName": "verticalAccuracyMeters",
            "affinity": "REAL",
            "notNull": true
          },
          {
            "fieldPath": "id",
            "columnName": "id",
            "affinity": "INTEGER",
            "notNull": false
          }
        ],
        "primaryKey": {
          "autoGenerate": true,
          "columnNames": [
            "id"
          ]
        },
        "indices": [
          {
            "name": "index_Measurements_tripId",
            "unique": false,
            "columnNames": [
              "tripId"
            ],
            "orders": [],
            "createSql": "CREATE INDEX IF NOT EXISTS `index_Measurements_tripId` ON `${TABLE_NAME}` (`tripId`)"
          }
        ],
        "foreignKeys": [
          {
            "table": "Trip",
            "onDelete": "CASCADE",
            "onUpdate": "NO ACTION",
            "columns": [
              "tripId"
            ],
            "referencedColumns": [
              "id"
            ]
          }
        ]
      },
      {
        "tableName": "TimeState",
        "createSql": "CREATE TABLE IF NOT EXISTS `${TABLE_NAME}` (`tripId` INTEGER NOT NULL, `state` INTEGER NOT NULL, `timestamp` INTEGER NOT NULL, `auto` INTEGER NOT NULL, `id` INTEGER PRIMARY KEY AUTOINCREMENT, `originalTripId` INTEGER, FOREIGN KEY(`tripId`) REFERENCES `Trip`(`id`) ON UPDATE NO ACTION ON DELETE CASCADE )",
        "fields": [
          {
            "fieldPath": "tripId",
            "columnName": "tripId",
            "affinity": "INTEGER",
            "notNull": true
          },
          {
            "fieldPath": "state",
            "columnName": "state",
            "affinity": "INTEGER",
            "notNull": true
          },
          {
            "fieldPath": "timestamp",
            "columnName": "timestamp",
            "affinity": "INTEGER",
            "notNull": true
          },
          {
            "fieldPath": "auto",
            "columnName": "auto",
            "affinity": "INTEGER",
            "notNull": true
          },
          {
            "fieldPath": "id",
            "columnName": "id",
            "affinity": "INTEGER",
            "notNull": false
          },
          {
            "fieldPath": "originalTripId",
            "columnName": "originalTripId",
            "affinity": "INTEGER",
            "notNull": false
          }
        ],
        "primaryKey": {
          "autoGenerate": true,
          "columnNames": [
            "id"
          ]
        },
        "indices": [
          {
            "name": "index_TimeState_tripId",
            "unique": false,
            "columnNames": [
              "tripId"
            ],
            "orders": [],
            "createSql": "CREATE INDEX IF NOT EXISTS `index_TimeState_tripId` ON `${TABLE_NAME}` (`tripId`)"
          }
        ],
        "foreignKeys": [
          {
            "table": "Trip",
            "onDelete": "CASCADE",
            "onUpdate": "NO ACTION",
            "columns": [
              "tripId"
            ],
            "referencedColumns": [
              "id"
            ]
          }
        ]
      },
      {
        "tableName": "Split",
        "createSql": "CREATE TABLE IF NOT EXISTS `${TABLE_NAME}` (`tripId` INTEGER NOT NULL, `duration` REAL NOT NULL, `totalDuration` REAL NOT NULL, `distance` REAL NOT NULL, `totalDistance` REAL NOT NULL, `timestamp` INTEGER NOT NULL, `id` INTEGER PRIMARY KEY AUTOINCREMENT, FOREIGN KEY(`tripId`) REFERENCES `Trip`(`id`) ON UPDATE NO ACTION ON DELETE CASCADE )",
        "fields": [
          {
            "fieldPath": "tripId",
            "columnName": "tripId",
            "affinity": "INTEGER",
            "notNull": true
          },
          {
            "fieldPath": "duration",
            "columnName": "duration",
            "affinity": "REAL",
            "notNull": true
          },
          {
            "fieldPath": "totalDuration",
            "columnName": "totalDuration",
            "affinity": "REAL",
            "notNull": true
          },
          {
            "fieldPath": "distance",
            "columnName": "distance",
            "affinity": "REAL",
            "notNull": true
          },
          {
            "fieldPath": "totalDistance",
            "columnName": "totalDistance",
            "affinity": "REAL",
            "notNull": true
          },
          {
            "fieldPath": "timestamp",
            "columnName": "timestamp",
            "affinity": "INTEGER",
            "notNull": true
          },
          {
            "fieldPath": "id",
            "columnName": "id",
            "affinity": "INTEGER",
            "notNull": false
          }
        ],
        "primaryKey": {
          "autoGenerate": true,
          "columnNames": [
            "id"
          ]
        },
        "indices": [
          {
            "name": "index_Split_tripId",
            "unique": false,
            "columnNames": [
              "tripId"
            ],
            "orders": [],
            "createSql": "CREATE INDEX IF NOT EXISTS `index_Split_tripId` ON `${TABLE_NAME}` (`tripId`)"
          }
        ],
        "foreignKeys": [
          {
            "table": "Trip",
            "onDelete": "CASCADE",
            "onUpdate": "NO ACTION",
            "columns": [
              "tripId"
            ],
            "referencedColumns": [
              "id"
            ]
          }
        ]
      },
      {
        "tableName": "OnboardSensors",
        "createSql": "CREATE TABLE IF NOT EXISTS `${TABLE_NAME}` (`tripId` INTEGER NOT NULL, `timestamp` INTEGER NOT NULL, `gravityX` REAL, `gravityY` REAL, `gravityZ` REAL, `gyroscopeX` REAL, `gyroscopeY` REAL, `gyroscopeZ` REAL, `pressure` REAL, `id` INTEGER PRIMARY KEY AUTOINCREMENT, FOREIGN KEY(`tripId`) REFERENCES `Trip`(`id`) ON UPDATE NO ACTION ON DELETE CASCADE )",
        "fields": [
          {
            "fieldPath": "tripId",
            "columnName": "tripId",
            "affinity": "INTEGER",
            "notNull": true
          },
          {
            "fieldPath": "timestamp",
            "columnName": "timestamp",
            "affinity": "INTEGER",
            "notNull": true
          },
          {
            "fieldPath": "gravityX",
            "columnName": "gravityX",
            "affinity": "REAL",
            "notNull": false
          },
          {
            "fieldPath": "gravityY",
            "columnName": "gravityY",
            "affinity": "REAL",
            "notNull": false
          },
          {
            "fieldPath": "gravityZ",
            "columnName": "gravityZ",
            "affinity": "REAL",
            "notNull": false
          },
          {
            "fieldPath": "gyroscopeX",
            "columnName": "gyroscopeX",
            "affinity": "REAL",
            "notNull": false
          },
          {
            "fieldPath": "gyroscopeY",
            "columnName": "gyroscopeY",
            "affinity": "REAL",
            "notNull": false
          },
          {
            "fieldPath": "gyroscopeZ",
            "columnName": "gyroscopeZ",
            "affinity": "REAL",
            "notNull": false
          },
          {
            "fieldPath": "pressure",
            "columnName": "pressure",
            "affinity": "REAL",
            "notNull": false
          },
          {
            "fieldPath": "id",
            "columnName": "id",
            "affinity": "INTEGER",
            "notNull": false
          }
        ],
        "primaryKey": {
          "autoGenerate": true,
          "columnNames": [
            "id"
          ]
        },
        "indices": [
          {
            "name": "index_OnboardSensors_tripId",
            "unique": false,
            "columnNames": [
              "tripId"
            ],
            "orders": [],
            "createSql": "CREATE INDEX IF NOT EXISTS `index_OnboardSensors_tripId` ON `${TABLE_NAME}` (`tripId`)"
          }
        ],
        "foreignKeys": [
          {
            "table": "Trip",
            "onDelete": "CASCADE",
            "onUpdate": "NO ACTION",
            "columns": [
              "tripId"
            ],
            "referencedColumns": [
              "id"
            ]
          }
        ]
      },
      {
        "tableName": "Bike",
        "createSql": "CREATE TABLE IF NOT EXISTS `${TABLE_NAME}` (`name` TEXT, `dateOfPurchase` INTEGER, `weight` REAL, `wheelCircumference` REAL, `isDefault` INTEGER NOT NULL, `id` INTEGER PRIMARY KEY AUTOINCREMENT)",
        "fields": [
          {
            "fieldPath": "name",
            "columnName": "name",
            "affinity": "TEXT",
            "notNull": false
          },
          {
            "fieldPath": "dateOfPurchase",
            "columnName": "dateOfPurchase",
            "affinity": "INTEGER",
            "notNull": false
          },
          {
            "fieldPath": "weight",
            "columnName": "weight",
            "affinity": "REAL",
            "notNull": false
          },
          {
            "fieldPath": "wheelCircumference",
            "columnName": "wheelCircumference",
            "affinity": "REAL",
            "notNull": false
          },
          {
            "fieldPath": "isDefault",
            "columnName": "isDefault",
            "affinity": "INTEGER",
            "notNull": true
          },
          {
            "fieldPath": "id",
            "columnName": "id",
            "affinity": "INTEGER",
            "notNull": false
          }
        ],
        "primaryKey": {
          "autoGenerate": true,
          "columnNames": [
            "id"
          ]
        },
        "indices": [],
        "foreignKeys": []
      },
      {
        "tableName": "ExternalSensor",
        "createSql": "CREATE TABLE IF NOT EXISTS `${TABLE_NAME}` (`address` TEXT NOT NULL, `name` TEXT, `features` INTEGER, `bikeId` INTEGER, `id` INTEGER PRIMARY KEY AUTOINCREMENT, FOREIGN KEY(`bikeId`) REFERENCES `Bike`(`id`) ON UPDATE NO ACTION ON DELETE SET DEFAULT )",
        "fields": [
          {
            "fieldPath": "address",
            "columnName": "address",
            "affinity": "TEXT",
            "notNull": true
          },
          {
            "fieldPath": "name",
            "columnName": "name",
            "affinity": "TEXT",
            "notNull": false
          },
          {
            "fieldPath": "features",
            "columnName": "features",
            "affinity": "INTEGER",
            "notNull": false
          },
          {
            "fieldPath": "bikeId",
            "columnName": "bikeId",
            "affinity": "INTEGER",
            "notNull": false
          },
          {
            "fieldPath": "id",
            "columnName": "id",
            "affinity": "INTEGER",
            "notNull": false
          }
        ],
        "primaryKey": {
          "autoGenerate": true,
          "columnNames": [
            "id"
          ]
        },
        "indices": [
          {
            "name": "index_ExternalSensor_bikeId",
            "unique": false,
            "columnNames": [
              "bikeId"
            ],
            "orders": [],
            "createSql": "CREATE INDEX IF NOT EXISTS `index_ExternalSensor_bikeId` ON `${TABLE_NAME}` (`bikeId`)"
          }
        ],
        "foreignKeys": [
          {
            "table": "Bike",
            "onDelete": "SET DEFAULT",
            "onUpdate": "NO ACTION",
            "columns": [
              "bikeId"
            ],
            "referencedColumns": [
              "id"
            ]
          }
        ]
      },
      {
        "tableName": "Weather",
        "createSql": "CREATE TABLE IF NOT EXISTS `${TABLE_NAME}` (`timestamp` INTEGER NOT NULL, `sunrise` INTEGER NOT NULL, `sunset` INTEGER NOT NULL, `temperature` REAL NOT NULL, `feelsLike` REAL NOT NULL, `pressure` INTEGER NOT NULL, `humidity` INTEGER NOT NULL, `dewPoint` REAL NOT NULL, `uvIndex` REAL NOT NULL, `clouds` INTEGER NOT NULL, `visibility` INTEGER NOT NULL, `windSpeed` REAL NOT NULL, `windDirection` INTEGER NOT NULL, `tripId` INTEGER NOT NULL, `id` INTEGER PRIMARY KEY AUTOINCREMENT, FOREIGN KEY(`tripId`) REFERENCES `Trip`(`id`) ON UPDATE NO ACTION ON DELETE CASCADE )",
        "fields": [
          {
            "fieldPath": "timestamp",
            "columnName": "timestamp",
            "affinity": "INTEGER",
            "notNull": true
          },
          {
            "fieldPath": "sunrise",
            "columnName": "sunrise",
            "affinity": "INTEGER",
            "notNull": true
          },
          {
            "fieldPath": "sunset",
            "columnName": "sunset",
            "affinity": "INTEGER",
            "notNull": true
          },
          {
            "fieldPath": "temperature",
            "columnName": "temperature",
            "affinity": "REAL",
            "notNull": true
          },
          {
            "fieldPath": "feelsLike",
            "columnName": "feelsLike",
            "affinity": "REAL",
            "notNull": true
          },
          {
            "fieldPath": "pressure",
            "columnName": "pressure",
            "affinity": "INTEGER",
            "notNull": true
          },
          {
            "fieldPath": "humidity",
            "columnName": "humidity",
            "affinity": "INTEGER",
            "notNull": true
          },
          {
            "fieldPath": "dewPoint",
            "columnName": "dewPoint",
            "affinity": "REAL",
            "notNull": true
          },
          {
            "fieldPath": "uvIndex",
            "columnName": "uvIndex",
            "affinity": "REAL",
            "notNull": true
          },
          {
            "fieldPath": "clouds",
            "columnName": "clouds",
            "affinity": "INTEGER",
            "notNull": true
          },
          {
            "fieldPath": "visibility",
            "columnName": "visibility",
            "affinity": "INTEGER",
            "notNull": true
          },
          {
            "fieldPath": "windSpeed",
            "columnName": "windSpeed",
            "affinity": "REAL",
            "notNull": true
          },
          {
            "fieldPath": "windDirection",
            "columnName": "windDirection",
            "affinity": "INTEGER",
            "notNull": true
          },
          {
            "fieldPath": "tripId",
            "columnName": "tripId",
            "affinity": "INTEGER",
            "notNull": true
          },
          {
            "fieldPath": "id",
            "columnName": "id",
            "affinity": "INTEGER",
            "notNull": false
          }
        ],
        "primaryKey": {
          "autoGenerate": true,
          "columnNames": [
            "id"
          ]
        },
        "indices": [
          {
            "name": "index_Weather_tripId",
            "unique": false,
            "columnNames": [
              "tripId"
            ],
            "orders": [],
            "createSql": "CREATE INDEX IF NOT EXISTS `index_Weather_tripId` ON `${TABLE_NAME}` (`tripId`)"
          }
        ],
        "foreignKeys": [
          {
            "table": "Trip",
            "onDelete": "CASCADE",
            "onUpdate": "NO ACTION",
            "columns": [
              "tripId"
            ],
            "referencedColumns": [
              "id"
            ]
          }
        ]
      },
      {
        "tableName": "HeartRateMeasurement",
        "createSql": "CREATE TABLE IF NOT EXISTS `${TABLE_NAME}` (`tripId` INTEGER NOT NULL, `timestamp` INTEGER NOT NULL, `heartRate` INTEGER NOT NULL, `energyExpended` INTEGER, `rrIntervals` TEXT, `id` INTEGER PRIMARY KEY AUTOINCREMENT, FOREIGN KEY(`tripId`) REFERENCES `Trip`(`id`) ON UPDATE NO ACTION ON DELETE CASCADE )",
        "fields": [
          {
            "fieldPath": "tripId",
            "columnName": "tripId",
            "affinity": "INTEGER",
            "notNull": true
          },
          {
            "fieldPath": "timestamp",
            "columnName": "timestamp",
            "affinity": "INTEGER",
            "notNull": true
          },
          {
            "fieldPath": "heartRate",
            "columnName": "heartRate",
            "affinity": "INTEGER",
            "notNull": true
          },
          {
            "fieldPath": "energyExpended",
            "columnName": "energyExpended",
            "affinity": "INTEGER",
            "notNull": false
          },
          {
            "fieldPath": "rrIntervals",
            "columnName": "rrIntervals",
            "affinity": "TEXT",
            "notNull": false
          },
          {
            "fieldPath": "id",
            "columnName": "id",
            "affinity": "INTEGER",
            "notNull": false
          }
        ],
        "primaryKey": {
          "autoGenerate": true,
          "columnNames": [
            "id"
          ]
        },
        "indices": [
          {
            "name": "index_HeartRateMeasurement_tripId",
            "unique": false,
            "columnNames": [
              "tripId"
            ],
            "orders": [],
            "createSql": "CREATE INDEX IF NOT EXISTS `index_HeartRateMeasurement_tripId` ON `${TABLE_NAME}` (`tripId`)"
          }
        ],
        "foreignKeys": [
          {
            "table": "Trip",
            "onDelete": "CASCADE",
            "onUpdate": "NO ACTION",
            "columns": [
              "tripId"
            ],
            "referencedColumns": [
              "id"
            ]
          }
        ]
      },
      {
        "tableName": "CadenceSpeedMeasurement",
        "createSql": "CREATE TABLE IF NOT EXISTS `${TABLE_NAME}` (`tripId` INTEGER NOT NULL, `timestamp` INTEGER NOT NULL, `revolutions` INTEGER NOT NULL, `lastEvent` INTEGER NOT NULL, `rpmOrSpeed` REAL, `sensorType` INTEGER NOT NULL, `id` INTEGER PRIMARY KEY AUTOINCREMENT, FOREIGN KEY(`tripId`) REFERENCES `Trip`(`id`) ON UPDATE NO ACTION ON DELETE CASCADE )",
        "fields": [
          {
            "fieldPath": "tripId",
            "columnName": "tripId",
            "affinity": "INTEGER",
            "notNull": true
          },
          {
            "fieldPath": "timestamp",
            "columnName": "timestamp",
            "affinity": "INTEGER",
            "notNull": true
          },
          {
            "fieldPath": "revolutions",
            "columnName": "revolutions",
            "affinity": "INTEGER",
            "notNull": true
          },
          {
            "fieldPath": "lastEvent",
            "columnName": "lastEvent",
            "affinity": "INTEGER",
            "notNull": true
          },
          {
            "fieldPath": "rpmOrSpeed",
            "columnName": "rpmOrSpeed",
            "affinity": "REAL",
            "notNull": false
          },
          {
            "fieldPath": "sensorType",
            "columnName": "sensorType",
            "affinity": "INTEGER",
            "notNull": true
          },
          {
            "fieldPath": "id",
            "columnName": "id",
            "affinity": "INTEGER",
            "notNull": false
          }
        ],
        "primaryKey": {
          "autoGenerate": true,
          "columnNames": [
            "id"
          ]
        },
        "indices": [
          {
            "name": "index_CadenceSpeedMeasurement_tripId",
            "unique": false,
            "columnNames": [
              "tripId"
            ],
            "orders": [],
            "createSql": "CREATE INDEX IF NOT EXISTS `index_CadenceSpeedMeasurement_tripId` ON `${TABLE_NAME}` (`tripId`)"
          }
        ],
        "foreignKeys": [
          {
            "table": "Trip",
            "onDelete": "CASCADE",
            "onUpdate": "NO ACTION",
            "columns": [
              "tripId"
            ],
            "referencedColumns": [
              "id"
            ]
          }
        ]
      },
      {
        "tableName": "TempRelHumMeasurement",
        "createSql": "CREATE TABLE IF NOT EXISTS `${TABLE_NAME}` (`tripId` INTEGER NOT NULL, `timestamp` INTEGER NOT NULL, `tempretature` REAL NOT NULL, `relativeHumidity` REAL NOT NULL, `sensorType` TEXT NOT NULL, `lastEvent` INTEGER NOT NULL, `id` INTEGER PRIMARY KEY AUTOINCREMENT, FOREIGN KEY(`tripId`) REFERENCES `Trip`(`id`) ON UPDATE NO ACTION ON DELETE CASCADE )",
        "fields": [
          {
            "fieldPath": "tripId",
            "columnName": "tripId",
            "affinity": "INTEGER",
            "notNull": true
          },
          {
            "fieldPath": "timestamp",
            "columnName": "timestamp",
            "affinity": "INTEGER",
            "notNull": true
          },
          {
            "fieldPath": "tempretature",
            "columnName": "tempretature",
            "affinity": "REAL",
            "notNull": true
          },
          {
            "fieldPath": "relativeHumidity",
            "columnName": "relativeHumidity",
            "affinity": "REAL",
            "notNull": true
          },
          {
            "fieldPath": "sensorType",
            "columnName": "sensorType",
            "affinity": "TEXT",
            "notNull": true
          },
          {
            "fieldPath": "lastEvent",
            "columnName": "lastEvent",
            "affinity": "INTEGER",
            "notNull": true
          },
          {
            "fieldPath": "id",
            "columnName": "id",
            "affinity": "INTEGER",
            "notNull": false
          }
        ],
        "primaryKey": {
          "autoGenerate": true,
          "columnNames": [
            "id"
          ]
        },
        "indices": [
          {
            "name": "index_TempRelHumMeasurement_tripId",
            "unique": false,
            "columnNames": [
              "tripId"
            ],
            "orders": [],
            "createSql": "CREATE INDEX IF NOT EXISTS `index_TempRelHumMeasurement_tripId` ON `${TABLE_NAME}` (`tripId`)"
          }
        ],
        "foreignKeys": [
          {
            "table": "Trip",
            "onDelete": "CASCADE",
            "onUpdate": "NO ACTION",
            "columns": [
              "tripId"
            ],
            "referencedColumns": [
              "id"
            ]
          }
        ]
      },
      {
        "tableName": "Export",
        "createSql": "CREATE TABLE IF NOT EXISTS `${TABLE_NAME}` (`timestamp` INTEGER NOT NULL, `tripId` INTEGER NOT NULL, `uri` TEXT NOT NULL, `filename` TEXT NOT NULL, `fileType` TEXT NOT NULL, `id` INTEGER PRIMARY KEY AUTOINCREMENT NOT NULL, FOREIGN KEY(`tripId`) REFERENCES `Trip`(`id`) ON UPDATE NO ACTION ON DELETE NO ACTION )",
        "fields": [
          {
            "fieldPath": "timestamp",
            "columnName": "timestamp",
            "affinity": "INTEGER",
            "notNull": true
          },
          {
            "fieldPath": "tripId",
            "columnName": "tripId",
            "affinity": "INTEGER",
            "notNull": true
          },
          {
            "fieldPath": "uri",
            "columnName": "uri",
            "affinity": "TEXT",
            "notNull": true
          },
          {
            "fieldPath": "filename",
            "columnName": "filename",
            "affinity": "TEXT",
            "notNull": true
          },
          {
            "fieldPath": "fileType",
            "columnName": "fileType",
            "affinity": "TEXT",
            "notNull": true
          },
          {
            "fieldPath": "id",
            "columnName": "id",
            "affinity": "INTEGER",
            "notNull": true
          }
        ],
        "primaryKey": {
          "autoGenerate": true,
          "columnNames": [
            "id"
          ]
        },
        "indices": [
          {
            "name": "index_Export_tripId",
            "unique": false,
            "columnNames": [
              "tripId"
            ],
            "orders": [],
            "createSql": "CREATE INDEX IF NOT EXISTS `index_Export_tripId` ON `${TABLE_NAME}` (`tripId`)"
          }
        ],
        "foreignKeys": [
          {
            "table": "Trip",
            "onDelete": "NO ACTION",
            "onUpdate": "NO ACTION",
            "columns": [
              "tripId"
            ],
            "referencedColumns": [
              "id"
            ]
          }
        ]
      }
    ],
    "views": [],
    "setupQueries": [
      "CREATE TABLE IF NOT EXISTS room_master_table (id INTEGER PRIMARY KEY,identity_hash TEXT)",
      "INSERT OR REPLACE INTO room_master_table (id,identity_hash) VALUES(42, 'ca9f02e86d54baa797b13193ab1ec331')"
    ]
  }
}